<?xml version="1.0" encoding="UTF-8" standalone="no"?>
<!-- Generator: Adobe Illustrator 18.0.0, SVG Export Plug-In . SVG Version: 6.00 Build 0)  -->

<svg
   xmlns:dc="http://purl.org/dc/elements/1.1/"
   xmlns:cc="http://creativecommons.org/ns#"
   xmlns:rdf="http://www.w3.org/1999/02/22-rdf-syntax-ns#"
   xmlns:svg="http://www.w3.org/2000/svg"
   xmlns="http://www.w3.org/2000/svg"
   xmlns:sodipodi="http://sodipodi.sourceforge.net/DTD/sodipodi-0.dtd"
   xmlns:inkscape="http://www.inkscape.org/namespaces/inkscape"
   version="1.1"
   id="Layer_1"
   x="0px"
   y="0px"
   width="650"
   height="100"
   viewBox="7.8 34.7 650 100"
   enable-background="new 7.8 34.7 651 101"
   xml:space="preserve"
   inkscape:version="0.48.5 r10040"
   sodipodi:docname="about-us-benefits-icons.svg"><metadata
     id="metadata3259"><rdf:RDF><cc:Work
         rdf:about=""><dc:format>image/svg+xml</dc:format><dc:type
           rdf:resource="http://purl.org/dc/dcmitype/StillImage" /></cc:Work></rdf:RDF></metadata><defs
     id="defs3257" /><sodipodi:namedview
     pagecolor="#ffffff"
     bordercolor="#666666"
     borderopacity="1"
     objecttolerance="10"
     gridtolerance="10"
     guidetolerance="10"
     inkscape:pageopacity="0"
     inkscape:pageshadow="2"
     inkscape:window-width="1596"
     inkscape:window-height="845"
     id="namedview3255"
     showgrid="false"
     showguides="true"
     inkscape:guide-bbox="true"
     inkscape:zoom="2.0399386"
     inkscape:cx="325.04558"
     inkscape:cy="-6.2588341"
     inkscape:window-x="0"
     inkscape:window-y="26"
     inkscape:window-maximized="0"
     inkscape:current-layer="Layer_1" /><g
     id="g3217"
     transform="translate(0,-1)"><path
       d="m 574.7,63.6 c -1.3,1.1 -4.3,-0.9 -6.2,-1.9 -2,-0.9 -4.3,0.5 -2.1,4.4 2.2,3.9 4.6,5.4 2.4,5.4 -2.2,0 -1.3,4.1 4.1,3.4 1.3,-0.2 2.3,-0.2 3.1,-0.1 0,-0.7 -0.1,-1.2 -0.1,-1.4 -0.6,-1.6 -0.9,-3.3 -0.9,-4.9 0,-2.1 0.4,-4 1.2,-5.8 -0.6,0.3 -1.1,0.6 -1.5,0.9 z"
       id="path3219"
       inkscape:connector-curvature="0"
       style="fill:#ff0084" /><path
       d="m 593.7,115.2 c 14.3,0 24.3,-6.9 26,-15.1 3.4,-16.6 0,-22.7 -3.2,-22.4 -3.2,0.3 -6.6,6.8 -10.2,7.1 -3.7,0.2 -2.7,-3.7 -8,-3.7 -1.4,0 -2.3,-0.5 -3,-1.2 4.4,-2.1 7.4,-6.5 7.4,-11.7 0,-7.1 -5.8,-12.9 -12.9,-12.9 -7.1,0 -12.9,5.8 -12.9,12.9 0,1.6 0.3,3.1 0.8,4.5 0,0 1.8,8.9 -6,16.2 -4.4,4.1 -3.9,11.2 -3.9,11.2 -0.1,8.3 11.5,15.1 25.9,15.1 z m -10,-53.7 c 1.1,0 2.1,0.9 2.1,2.1 0,1.2 -0.9,2.1 -2.1,2.1 -1.1,0 -2.1,-0.9 -2.1,-2.1 0.1,-1.2 1,-2.1 2.1,-2.1 z"
       id="path3221"
       inkscape:connector-curvature="0"
       style="fill:#ff0084" /></g><g
     id="g3223"
     transform="translate(0,-1)"><path
       d="m 103.1,64 c 0,-0.6 -0.4,-1 -1,-1.2 C 86.5,59.7 74.5,50.5 74.4,50.4 74,50.1 73.4,50 72.9,50.4 l -0.3,0.2 c 0,0 0,0 -0.1,0 C 72,51 60,59.9 44.5,63 c -0.6,0.1 -1,0.6 -1,1.2 -1.1,19.6 6.9,33.7 13.8,42.1 7.5,9.1 15.1,13.5 15.4,13.7 0.2,0.1 0.4,0.2 0.6,0.2 0.2,0 0.4,-0.1 0.6,-0.2 l 0.1,-0.1 c 2.5,-1.4 31.2,-18.8 29.1,-55.9 z m -30.3,49.8 v 0.2 c 0,0 -26,-15 -24.2,-46.7 13.8,-2.8 24.5,-10.8 24.5,-10.8 l 0.3,-0.2 c 0,0 10.1,8 23.9,10.8 1.9,31.7 -24.5,46.7 -24.5,46.7 z"
       id="path3225"
       inkscape:connector-curvature="0"
       style="fill:#ff0084" /><path
       d="M 84.2,89.1 73.2,67.9 62.3,89.1 c -2.2,7.4 4.9,13.3 11,13.3 6,0 13.5,-5.7 10.9,-13.3 z M 73.1,100 c -0.2,0 -0.3,0 -0.5,0 0,0 -0.2,0 -0.6,-0.1 -0.1,0 -0.2,0 -0.3,-0.1 -0.1,0 -0.3,-0.1 -0.4,-0.1 C 71,99.6 70.6,99.5 70.3,99.4 70.1,99.3 70,99.3 69.8,99.2 69.6,99.1 69.4,99 69.3,98.9 68.9,98.7 68.6,98.5 68.2,98.2 67.8,97.9 67.5,97.7 67.1,97.3 66.8,97 66.5,96.6 66.2,96.3 65.9,95.9 65.7,95.6 65.4,95.2 65.2,94.8 65,94.4 64.8,94 c -0.1,-0.4 -0.3,-0.8 -0.4,-1.1 0,-0.2 -0.1,-0.4 -0.1,-0.5 0,-0.2 0,-0.3 -0.1,-0.5 -0.1,-0.3 -0.1,-0.6 -0.1,-0.9 0,-0.3 0,-0.5 0,-0.7 0,-0.4 0,-0.6 0,-0.6 0,0 0,0.2 0.1,0.6 0,0.2 0.1,0.4 0.2,0.6 0.1,0.2 0.1,0.5 0.3,0.8 0.1,0.1 0.1,0.3 0.2,0.4 0.1,0.1 0.2,0.3 0.2,0.4 0.1,0.3 0.4,0.6 0.6,0.9 0.2,0.3 0.5,0.6 0.7,0.8 0.3,0.3 0.6,0.5 0.9,0.8 0.3,0.2 0.6,0.4 0.9,0.6 0.3,0.2 0.7,0.3 1,0.4 0.3,0.1 0.6,0.2 0.9,0.3 0.1,0 0.3,0.1 0.4,0.1 0.1,0 0.3,0 0.4,0 0.3,0 0.5,0 0.7,0 0.1,0 0.2,0 0.3,0 0.1,0 0.2,0 0.3,0 0.4,0 0.6,0 0.6,0 1,-0.1 1.8,0.6 1.9,1.6 0.1,1.1 -0.6,2 -1.6,2 z"
       id="path3227"
       inkscape:connector-curvature="0"
       style="fill:#ff0084" /></g><g
     id="g3229"
     transform="translate(0,-1)"><path
       d="m 232.3,91.8 h 1 v -1 -11 -1 h -1 -7.6 c -0.4,-1.5 -1,-3 -1.8,-4.4 l 5.3,-5.3 0.7,-0.7 -0.7,-0.7 -7.8,-7.8 -0.7,-0.7 -0.7,0.7 -5.4,5.4 c -1.3,-0.7 -2.7,-1.3 -4.1,-1.7 v -7.4 -1 h -1 -11.1 -1 v 1 7.4 c -1.4,0.4 -2.7,0.9 -3.9,1.6 l -5.2,-5.2 -0.7,-0.7 -0.7,0.7 -7.8,7.8 -0.7,0.7 0.7,0.7 5.1,5.1 c -0.8,1.4 -1.4,2.8 -1.8,4.3 h -7.3 -1 v 1 11.1 1 h 1 7.2 c 0.5,1.6 1.1,3.1 1.9,4.6 l -5.1,5.1 -0.7,0.7 0.7,0.7 7.8,7.8 0.7,0.7 0.7,-0.7 5.2,-5.2 c 1.4,0.7 2.8,1.3 4.3,1.7 v 7.3 1 h 1 11.2 1 v -1 -7.5 c 1.3,-0.4 2.6,-1 3.8,-1.6 l 5.4,5.3 0.7,0.7 0.7,-0.7 7.8,-7.8 0.7,-0.7 -0.7,-0.7 -5.3,-5.3 c 0.7,-1.3 1.3,-2.7 1.7,-4.1 l 7.5,-0.2 0,0 z m -15.7,-6.6 c 0,7.4 -6,13.5 -13.5,13.5 -7.5,0 -13.5,-6 -13.5,-13.5 0,-7.5 6,-13.5 13.5,-13.5 7.5,0 13.5,6 13.5,13.5 z"
       id="path3231"
       inkscape:connector-curvature="0"
       style="fill:#ff0084" /></g><path
     d="m 472.6,67.3 c -2.8,-2.8 -6.5,-4.3 -10.4,-4.3 -3.9,0 -7.6,1.5 -10.4,4.3 L 435.1,84 c -5.7,5.7 -5.7,15.1 0,20.8 l 7.5,7.5 c 2.8,2.8 6.5,4.3 10.4,4.3 3.9,0 7.6,-1.5 10.4,-4.3 l 16.7,-16.7 c 2.8,-2.8 4.3,-6.5 4.3,-10.4 0,-3.9 -1.5,-7.6 -4.3,-10.4 l -7.5,-7.5 z m 5.3,23.1 -6.8,-6.8 c -1,-1 -2.6,-1 -3.5,0 -1,1 -1,2.6 0,3.5 l 7,7 -4,4 -7,-7 c -1,-1 -2.6,-1 -3.5,0 -1,1 -1,2.6 0,3.5 l 7,7 -4,4 -7,-7 c -1,-1 -2.6,-1 -3.5,0 -1,1 -1,2.6 0,3.5 l 7,7 c -3.7,3.4 -9.8,3.3 -13.4,-0.3 l -7.5,-7.5 c -3.8,-3.8 -3.8,-9.9 0,-13.7 l 16.7,-16.7 c 1.8,-1.8 4.3,-2.8 6.9,-2.8 2.6,0 5,1 6.9,2.8 l 7.5,7.5 c 1.8,1.8 2.8,4.3 2.8,6.9 -0.1,1.8 -0.6,3.5 -1.6,5.1 z m 14.5,-28.9 c -0.8,0.8 -0.6,2.4 -0.3,3 1.9,3.1 1.6,6 -1.3,8.8 l -2.9,2.9 c -1.3,1.3 -4.2,-1.8 -7.9,-5.5 l -3.1,-3.1 c -3.7,-3.7 -6.9,-6.5 -5.5,-7.9 l 2.9,-2.9 c 2.8,-2.8 5.7,-3.2 8.8,-1.4 0.6,0.3 2.2,0.6 3.1,-0.3 0.8,-0.8 2.7,-2.7 2.7,-2.7 1.2,-1.2 2.7,-0.8 3.9,0.4 l 2.1,2.1 c 1.2,1.2 1.6,2.7 0.4,3.9 -0.2,0 -2.1,1.9 -2.9,2.7 z"
     id="path3233"
     inkscape:connector-curvature="0"
     style="fill:#ff0084" /><g
     id="g3235"
     transform="translate(0,-1)"><g
       id="g3237"><path
         d="m 338.7,99.2 c 2.7,7.3 8.8,12.9 16.3,15.1 1.3,2.5 4,4.3 7,4.3 3,0 5.7,-1.7 7,-4.3 7.4,-2.2 13.6,-7.8 16.3,-15.1 4.4,-0.1 8,-3.7 8,-8.1 0,-4.4 -3.6,-8 -8,-8.1 -1.7,-4.7 -4.8,-8.7 -8.8,-11.5 v 3.1 c 0,0.2 0,0.4 -0.1,0.6 3,2.6 5.2,5.9 6.4,9.8 l 0.4,1.2 1.3,-0.2 c 0.3,0 0.5,-0.1 0.8,-0.1 2.8,0 5.1,2.3 5.1,5.1 0,2.8 -2.3,5.1 -5.1,5.1 -0.2,0 -0.5,0 -0.7,-0.1 l -1.3,-0.2 -0.4,1.2 c -1.9,6.3 -6.8,11.3 -12.9,13.6 v -0.1 c 0,-1.5 -0.4,-2.9 -1.2,-4.1 0.7,-0.8 1.2,-1.7 1.2,-2.7 0,-2.9 -3.5,-5.2 -7.9,-5.2 -4.4,0 -7.9,2.3 -7.9,5.2 0,1 0.4,1.9 1.2,2.7 -0.7,1.2 -1.2,2.6 -1.2,4.1 v 0.1 c -6.1,-2.4 -11,-7.3 -12.9,-13.6 l -0.4,-1.2 -1.3,0.2 c -0.3,0 -0.5,0.1 -0.7,0.1 -2.8,0 -5.1,-2.3 -5.1,-5.1 0,-2.8 2.3,-5.1 5.1,-5.1 0.2,0 0.5,0 0.8,0.1 l 1.3,0.2 0.4,-1.2 c 1.3,-4.2 3.9,-7.9 7.3,-10.5 v -3.7 c -4.5,2.9 -8,7.1 -9.8,12.2 -4.4,0.1 -8,3.7 -8,8.1 0,4.4 3.4,8 7.8,8.1 z m 18.4,11.4 c 0,-0.9 0.3,-1.7 0.7,-2.4 0.7,-1.1 1.8,-2 3.1,-2.3 0.4,-0.1 0.7,-0.1 1.1,-0.1 0.4,0 0.8,0.1 1.1,0.1 1.3,0.3 2.4,1.2 3.1,2.3 0.4,0.7 0.7,1.5 0.7,2.4 0,0.4 -0.1,0.7 -0.1,1.1 -0.4,1.6 -1.6,3 -3.2,3.5 -0.5,0.2 -1,0.3 -1.6,0.3 -0.6,0 -1.1,-0.1 -1.6,-0.3 -1.6,-0.5 -2.8,-1.9 -3.2,-3.5 0,-0.3 -0.1,-0.7 -0.1,-1.1 z m 4.9,-9 c 2.9,0 4.9,1.3 4.9,2.2 0,0.1 -0.1,0.3 -0.2,0.5 -1.3,-1 -2.9,-1.6 -4.7,-1.6 -1.8,0 -3.4,0.6 -4.7,1.6 -0.1,-0.2 -0.2,-0.3 -0.2,-0.5 0,-0.9 1.9,-2.2 4.9,-2.2 z"
         id="path3239"
         inkscape:connector-curvature="0"
         style="fill:#ff0084" /><path
         d="m 355.6,94 c 2.6,0 2.6,-4 0,-4 -2.6,0 -2.6,4 0,4 z"
         id="path3241"
         inkscape:connector-curvature="0"
         style="fill:#ff0084" /><path
         d="m 368.4,93.8 c 2.6,0 2.6,-4 0,-4 -2.6,0 -2.6,4 0,4 z"
         id="path3243"
         inkscape:connector-curvature="0"
         style="fill:#ff0084" /><path
         d="m 353.7,79.6 h 0.3 l 0.3,-0.1 c 2.8,-1.3 4.7,-2.3 6.1,-3.1 0.6,0.3 1.3,0.4 2,0.4 0.7,0 1.4,-0.1 2,-0.4 1.4,0.8 3.3,1.8 6.1,3.1 l 0.3,0.1 h 0.3 c 1.6,0 2.9,-1.1 3.4,-2.5 0.1,-0.3 0.2,-0.7 0.2,-1 V 74 70.4 66.7 c 0,-1.9 -1.6,-3.5 -3.5,-3.5 h -0.3 l -0.3,0.1 c -1.7,0.8 -3.1,1.5 -4.2,2.1 -0.7,0.4 -1.3,0.7 -1.9,1 -0.5,-0.2 -1,-0.3 -1.5,-0.4 -0.2,0 -0.4,-0.1 -0.5,-0.1 -0.1,0 -0.4,0 -0.5,0.1 -0.5,0.1 -1,0.2 -1.5,0.4 -0.5,-0.3 -1.1,-0.7 -1.9,-1 -1.1,-0.6 -2.5,-1.3 -4.2,-2.1 l -0.3,-0.1 h -0.3 c -1.9,0 -3.5,1.6 -3.5,3.5 v 3.2 3.5 2.8 c 0,0.4 0.1,0.7 0.2,1 0.3,1.3 1.6,2.4 3.2,2.4 z M 362,69 c 0.1,0 0.3,0 0.4,0 0.1,0 0.3,0 0.4,0 0.3,0 0.5,0.1 0.7,0.3 0.3,0.2 0.6,0.4 0.8,0.7 l 0,0 c 0.3,0.4 0.4,0.8 0.4,1.3 0,0.3 -0.1,0.7 -0.2,0.9 -0.1,0.1 -0.1,0.2 -0.2,0.4 -0.2,0.2 -0.4,0.5 -0.6,0.6 -0.1,0 -0.1,0.1 -0.2,0.1 -0.3,0.2 -0.7,0.3 -1.2,0.3 -0.4,0 -0.8,-0.1 -1.2,-0.3 -0.1,0 -0.1,-0.1 -0.2,-0.1 -0.2,-0.2 -0.5,-0.4 -0.6,-0.6 -0.1,-0.1 -0.1,-0.2 -0.2,-0.4 -0.1,-0.3 -0.2,-0.6 -0.2,-0.9 0,-0.5 0.1,-0.9 0.4,-1.3 0,-0.1 0.1,-0.1 0.1,-0.1 0.2,-0.2 0.4,-0.4 0.7,-0.6 0.4,-0.1 0.7,-0.2 0.9,-0.3 z m 9.5,-2.8 c 0.2,0.1 0.3,0.3 0.3,0.5 v 2.2 3.3 3.9 0.1 c 0,0.1 -0.1,0.3 -0.2,0.3 -1.5,-0.7 -3.1,-1.5 -4.4,-2.3 0.1,-0.1 0.1,-0.3 0.2,-0.4 0.4,-0.7 0.6,-1.6 0.6,-2.5 0,-0.2 0,-0.5 -0.1,-0.7 -0.1,-0.5 -0.2,-1 -0.4,-1.4 -0.1,-0.3 -0.3,-0.5 -0.4,-0.8 0.2,-0.1 0.3,-0.2 0.5,-0.3 0.3,-0.2 0.6,-0.3 1,-0.5 0.8,-0.4 1.9,-0.9 2.9,-1.4 z m -18.3,2.2 v -1.8 c 0,-0.2 0.1,-0.4 0.3,-0.5 0.9,0.4 1.8,0.9 2.7,1.3 0.5,0.2 0.9,0.5 1.3,0.7 0.2,0.1 0.3,0.2 0.5,0.3 -0.2,0.2 -0.3,0.5 -0.4,0.8 -0.2,0.4 -0.3,0.8 -0.3,1.2 -0.1,0.3 -0.1,0.6 -0.1,1 0,0.9 0.2,1.7 0.6,2.5 0.1,0.1 0.1,0.3 0.2,0.4 -1.3,0.7 -2.9,1.6 -4.4,2.3 -0.1,-0.1 -0.2,-0.2 -0.2,-0.3 v -0.1 -4.4 l -0.2,-3.4 0,0 z"
         id="path3245"
         inkscape:connector-curvature="0"
         style="fill:#ff0084" /></g><g
       id="g3247"><path
         d="m 281.3,84.1 c 2.7,7.3 8.8,12.9 16.3,15.1 1.3,2.5 4,4.3 7,4.3 3,0 5.7,-1.7 7,-4.3 7.4,-2.2 13.6,-7.8 16.3,-15.1 4.4,-0.1 8,-3.7 8,-8.1 0,-4.4 -3.6,-8 -8,-8.1 -3,-8.3 -10.5,-14.3 -19.2,-15.8 -0.1,-0.1 -0.3,-0.1 -0.5,-0.1 -0.1,0 -0.2,0 -0.3,0 -1.1,-0.1 -2.2,-0.2 -3.3,-0.2 -10.4,0 -19.8,6.6 -23.3,16.1 -4.4,0.1 -8,3.7 -8,8.1 0,4.4 3.6,8.1 8,8.1 z m 18.4,4.7 c 0,-0.9 1.9,-2.2 4.9,-2.2 3,0 4.9,1.3 4.9,2.2 0,0.1 -0.1,0.3 -0.2,0.5 -1.3,-1 -2.9,-1.6 -4.7,-1.6 -1.8,0 -3.4,0.6 -4.7,1.6 -0.1,-0.2 -0.2,-0.4 -0.2,-0.5 z m 6.5,11.4 c -0.5,0.2 -1,0.3 -1.6,0.3 -0.6,0 -1.1,-0.1 -1.6,-0.3 -1.6,-0.5 -2.8,-1.9 -3.2,-3.5 -0.1,-0.4 -0.1,-0.7 -0.1,-1.1 0,-0.9 0.3,-1.7 0.7,-2.4 0.7,-1.1 1.8,-2 3.1,-2.3 0.4,-0.1 0.7,-0.1 1.1,-0.1 0.4,0 0.8,0.1 1.1,0.1 1.3,0.3 2.4,1.2 3.1,2.3 0.4,0.7 0.7,1.5 0.7,2.4 0,0.4 -0.1,0.7 -0.1,1.1 -0.4,1.7 -1.7,3 -3.2,3.5 z M 281.4,71 c 0.2,0 0.5,0 0.8,0.1 l 1.3,0.2 0.4,-1.2 c 1.8,-6 6.4,-10.8 12.1,-13.3 -1.3,2.8 0.5,6.3 3.3,7.6 3.6,1.7 9.4,1.9 11.8,-1.8 1.1,-1.7 0.1,-3.7 -1.2,-4.9 -1.9,-1.6 -4.6,-1.8 -6.8,-0.9 -1.8,0.7 -1,3.6 0.8,2.9 1.3,-0.5 2.5,-0.6 3.8,0.1 1.7,1 0.1,2 -1.1,2.4 -2.3,0.6 -5.6,0.1 -7.4,-1.5 -2.2,-2 0.6,-4.3 2.4,-4.9 1.9,-0.7 4,-0.8 6.1,-0.8 8.2,1.2 15.3,7 17.7,14.9 l 0.4,1.2 1.3,-0.2 c 0.3,0 0.5,-0.1 0.8,-0.1 2.8,0 5.1,2.3 5.1,5.1 0,2.8 -2.3,5.1 -5.1,5.1 -0.2,0 -0.5,0 -0.7,-0.1 l -1.3,-0.2 -0.4,1.2 c -1.9,6.3 -6.8,11.3 -12.9,13.6 v -0.1 c 0,-1.5 -0.4,-2.9 -1.2,-4.1 0.7,-0.8 1.2,-1.7 1.2,-2.7 0,-2.9 -3.5,-5.2 -7.9,-5.2 -4.4,0 -7.9,2.3 -7.9,5.2 0,1 0.4,1.9 1.2,2.7 -0.7,1.2 -1.2,2.6 -1.2,4.1 v 0.1 c -6.1,-2.4 -11,-7.3 -12.9,-13.6 l -0.4,-1.2 -1.3,0.2 c -0.3,0 -0.5,0.1 -0.8,0.1 -2.8,0 -5.1,-2.3 -5.1,-5.1 0,-2.8 2.3,-4.9 5.1,-4.9 z"
         id="path3249"
         inkscape:connector-curvature="0"
         style="fill:#ff0084" /><path
         d="m 298.2,79 c 2.6,0 2.6,-4 0,-4 -2.6,0 -2.6,4 0,4 z"
         id="path3251"
         inkscape:connector-curvature="0"
         style="fill:#ff0084" /><path
         d="m 311,78.8 c 2.6,0 2.6,-4 0,-4 -2.6,0 -2.6,4 0,4 z"
         id="path3253"
         inkscape:connector-curvature="0"
         style="fill:#ff0084" /></g></g></svg>