<?xml version="1.0" encoding="utf-8"?>
<!-- Generator: Adobe Illustrator 18.0.0, SVG Export Plug-In . SVG Version: 6.00 Build 0)  -->
<!DOCTYPE svg PUBLIC "-//W3C//DTD SVG 1.1//EN" "http://www.w3.org/Graphics/SVG/1.1/DTD/svg11.dtd">
<svg version="1.1" id="Layer_1" xmlns="http://www.w3.org/2000/svg" xmlns:xlink="http://www.w3.org/1999/xlink" x="0px" y="0px"
	 width="200px" height="200px" viewBox="0 0 200 200" enable-background="new 0 0 200 200" xml:space="preserve">
<g>
	<rect fill="none" width="200" height="200"/>
	<g>
		<path fill="#F1C40F" d="M71.5,68.2c-22.4,9.9-37,30.9-37,30.9c0.1,0.1,11.1,11.1,20.2,7.8l0.3,2.3c-1.1,0.4-2.3,0.6-3.5,0.6
			c-6.3,0-12.9-3.6-16.2-6.8c4.8,6,17.8,20.8,34.7,28.8C82.5,110.3,73.5,75.1,71.5,68.2z M57.8,100c-3.8,0-6.8-3.1-6.8-6.8
			c0-3.8,3.1-6.8,6.8-6.8c3.8,0,6.8,3,6.8,6.8C64.6,96.9,61.5,100,57.8,100z"/>
		<path fill="#F1C40F" d="M145.7,92.2c-6.6-7.2-17.5-17.5-30.7-23.6c13.4-5.9,39.9,4.8,15.7-10.2c-23.3-14.4-42.1,1.4-47.1,6.3
			c-2.8,0.6-5.4,1.4-8,2.5c1.9,6.6,11.6,42.7-1.6,65.7c5.1,2.2,10.6,3.6,16.3,4.1c11.4,10.6,35.5,14.9,28.1,4.9
			c-1.8-2.4-3.7-5.4-5.8-8.7c15.5-6.4,28.1-18.9,34.8-26.5l18.1,10.4V83.7L145.7,92.2z"/>
		<circle fill="#F1C40F" cx="57.8" cy="93" r="3.7"/>
	</g>
</g>
</svg>
